DD,Date,Upvote_Ratio,score,url,Ticker,Week,Day_of_year,Comment_Sentiment,Comment_Count,Title_Sentiment
Guess what? My DD on PRSP was right (it's getting a buyout),2021-01-06,0.95,284.0,https://www.reddit.com/r/wallstreetbets/comments/krzgcj/guess_what_my_dd_on_prsp_was_right_its_getting_a/,PRSP,1,6,0.313,49,0.0
EWT - The Real D🚀D🚀,2021-01-06,0.64,6.0,https://www.reddit.com/r/wallstreetbets/comments/krt704/ewt_the_real_dd/,EWT,1,6,-0.063,7,0.0
$JOE... Buy into The Hamptons when it was still a bunch of fucking potatoes farms.,2021-01-06,0.55,3.0,https://www.reddit.com/r/wallstreetbets/comments/krso09/joe_buy_into_the_hamptons_when_it_was_still_a/,JOE,1,6,0.173,17,0.0
Lion the next EV SuperSPAC,2021-01-06,0.75,28.0,https://www.reddit.com/r/wallstreetbets/comments/krrxsu/lion_the_next_ev_superspac/,PAC,1,6,0.265,18,0.0
$$SKLZ DD inside! My own REPOST was an Xmas present but New Years THIS THING GOT LEGS!!,2021-01-06,0.73,10.0,https://www.reddit.com/r/wallstreetbets/comments/krq7be/sklz_dd_inside_my_own_repost_was_an_xmas_present/,POST,1,6,0.055,10,0.0
Cathy's Fledgeling RAVN PT.2 🦅,2021-01-06,0.84,29.0,https://www.reddit.com/r/wallstreetbets/comments/kronvx/cathys_fledgeling_ravn_pt2/,RAVN,1,6,0.233,8,0.0
🚀🚀GRWG🚀🚀 safe & booming weed stock that isn't massively diluted,2021-01-06,0.82,21.0,https://www.reddit.com/r/wallstreetbets/comments/krod1q/grwg_safe_booming_weed_stock_that_isnt_massively/,GRWG,1,6,0.254,23,0.4404
FLGT DD 🚀🚀,2021-01-06,0.78,14.0,https://www.reddit.com/r/wallstreetbets/comments/krnkn0/flgt_dd/,FLGT,1,6,0.213,7,0.0
$NGA DD for my fellow autist ngas,2021-01-06,0.83,40.0,https://www.reddit.com/r/wallstreetbets/comments/krhful/nga_dd_for_my_fellow_autist_ngas/,NGA,1,6,0.147,19,0.0
BABA stock buyback incoming,2021-01-06,0.71,17.0,https://www.reddit.com/r/wallstreetbets/comments/krh12h/baba_stock_buyback_incoming/,BABA,1,6,0.116,9,0.0
GME gang - Digital is the rebirth of GameStop not the death. Tendie recipe provided. 💎💎 🚀🚀🚀💎💎,2021-01-06,0.95,330.0,https://www.reddit.com/r/wallstreetbets/comments/krgvq6/gme_gang_digital_is_the_rebirth_of_gamestop_not/,GME,1,6,0.173,35,0.4847
GME 4Q20 Financial Model Update,2021-01-06,0.94,400.0,https://www.reddit.com/r/wallstreetbets/comments/krdqp5/gme_4q20_financial_model_update/,GME,1,6,0.225,55,0.0
"GOEV hints at big news, LYFT partnership? 🚀",2021-01-06,0.94,160.0,https://www.reddit.com/r/wallstreetbets/comments/krdgwv/goev_hints_at_big_news_lyft_partnership/,GOEV,1,6,0.101,40,0.0
