DD,Date,Upvote_Ratio,score,url,Ticker,Week,Day_of_year,Comment_Sentiment,Comment_Count,Title_Sentiment
Indian Stocks $TTM $WIT $INFY,2021-01-18,0.64,10.0,https://www.reddit.com/r/wallstreetbets/comments/l000zg/indian_stocks_ttm_wit_infy/,INFY,3,18,0.121,8,0.0
Been too long since we've had a bearpocalypse post 🐻 that should tell you something. 20k QQQ SPY put play,2021-01-18,0.59,13.0,https://www.reddit.com/r/wallstreetbets/comments/kzz0jn/been_too_long_since_weve_had_a_bearpocalypse_post/,QQQ,3,18,0.016,37,0.34
ASML 🚀🚀🚀🚀🚀🚀🚀🌌,2021-01-18,0.67,10.0,https://www.reddit.com/r/wallstreetbets/comments/kzx1b8/asml/,ASML,3,18,0.199,6,0.0
"NOKIA, and why it might finally make your father proud of you.",2021-01-18,0.72,25.0,https://www.reddit.com/r/wallstreetbets/comments/kzvg4i/nokia_and_why_it_might_finally_make_your_father/,NOK,3,18,0.082,19,0.4767
LAC's Back (DD),2021-01-18,0.8,14.0,https://www.reddit.com/r/wallstreetbets/comments/kzutit/lacs_back_dd/,LAC,3,18,0.393,5,0.0
GME DD: Fair value is at least $74/share. Conservative $2.3bn in e-commerce sales in 2022. OPEN FOR DD 🚀🚀🚀🚀🚀 [Warning: LOTS OF OC],2021-01-18,0.97,820.0,https://www.reddit.com/r/wallstreetbets/comments/kzphxt/gme_dd_fair_value_is_at_least_74share/,OPEN,3,18,0.208,52,0.3182
How market makers consistently win selling weekly options - GME,2021-01-18,0.96,155.0,https://www.reddit.com/r/wallstreetbets/comments/kzotqk/how_market_makers_consistently_win_selling_weekly/,GME,3,18,0.35,14,0.5859
Some Fundamental Numbers on GME,2021-01-18,0.91,152.0,https://www.reddit.com/r/wallstreetbets/comments/kzl6qw/some_fundamental_numbers_on_gme/,GME,3,18,0.105,29,0.0
Has Anyone Looked into MAXR?,2021-01-18,0.8,26.0,https://www.reddit.com/r/wallstreetbets/comments/kzjzz8/has_anyone_looked_into_maxr/,MAXR,3,18,0.153,17,0.0
"With booming ammo sales, Vista Outdoor (VSTO) is about to soar",2021-01-18,0.88,69.0,https://www.reddit.com/r/wallstreetbets/comments/kzjgjk/with_booming_ammo_sales_vista_outdoor_vsto_is/,VSTO,3,18,0.231,22,0.0
