DD,Date,Upvote_Ratio,score,url,Ticker
Guess what? My DD on PRSP was right (it's getting a buyout),2021-01-06,0.95,284.0,https://www.reddit.com/r/wallstreetbets/comments/krzgcj/guess_what_my_dd_on_prsp_was_right_its_getting_a/,PRSP
EWT - The Real D🚀D🚀,2021-01-06,0.73,10.0,https://www.reddit.com/r/wallstreetbets/comments/krt704/ewt_the_real_dd/,EWT
$JOE... Buy into The Hamptons when it was still a bunch of fucking potatoes farms.,2021-01-06,0.57,4.0,https://www.reddit.com/r/wallstreetbets/comments/krso09/joe_buy_into_the_hamptons_when_it_was_still_a/,JOE
Lion the next EV SuperSPAC,2021-01-06,0.75,28.0,https://www.reddit.com/r/wallstreetbets/comments/krrxsu/lion_the_next_ev_superspac/,PAC
$$SKLZ DD inside! My own REPOST was an Xmas present but New Years THIS THING GOT LEGS!!,2021-01-06,0.75,10.0,https://www.reddit.com/r/wallstreetbets/comments/krq7be/sklz_dd_inside_my_own_repost_was_an_xmas_present/,POST
Cathy's Fledgeling RAVN PT.2 🦅,2021-01-06,0.86,31.0,https://www.reddit.com/r/wallstreetbets/comments/kronvx/cathys_fledgeling_ravn_pt2/,RAVN
🚀🚀GRWG🚀🚀 safe & booming weed stock that isn't massively diluted,2021-01-06,0.82,22.0,https://www.reddit.com/r/wallstreetbets/comments/krod1q/grwg_safe_booming_weed_stock_that_isnt_massively/,GRWG
FLGT DD 🚀🚀,2021-01-06,0.8,14.0,https://www.reddit.com/r/wallstreetbets/comments/krnkn0/flgt_dd/,FLGT
$NGA DD for my fellow autist ngas,2021-01-06,0.85,40.0,https://www.reddit.com/r/wallstreetbets/comments/krhful/nga_dd_for_my_fellow_autist_ngas/,NGA
BABA stock buyback incoming,2021-01-06,0.74,19.0,https://www.reddit.com/r/wallstreetbets/comments/krh12h/baba_stock_buyback_incoming/,BABA
GME gang - Digital is the rebirth of GameStop not the death. Tendie recipe provided. 💎💎 🚀🚀🚀💎💎,2021-01-06,0.95,332.0,https://www.reddit.com/r/wallstreetbets/comments/krgvq6/gme_gang_digital_is_the_rebirth_of_gamestop_not/,GME
Nokia - A truly retarded DD,2021-01-06,0.85,51.0,https://www.reddit.com/r/wallstreetbets/comments/krg293/nokia_a_truly_retarded_dd/,none
GME 4Q20 Financial Model Update,2021-01-06,0.94,399.0,https://www.reddit.com/r/wallstreetbets/comments/krdqp5/gme_4q20_financial_model_update/,GME
"GOEV hints at big news, LYFT partnership? 🚀",2021-01-06,0.94,157.0,https://www.reddit.com/r/wallstreetbets/comments/krdgwv/goev_hints_at_big_news_lyft_partnership/,GOEV
