DD,Date,Upvote_Ratio,score,url,Ticker
Pot Bubble 2.0 Coming,2021-01-08,0.96,48.0,https://www.reddit.com/r/wallstreetbets/comments/kterwl/pot_bubble_20_coming/,none
TRIGGER WARNING: Time to sell your TSLA you autists,2021-01-08,0.72,86.0,https://www.reddit.com/r/wallstreetbets/comments/kted60/trigger_warning_time_to_sell_your_tsla_you_autists/,TSLA
How to fuck your wife’s boyfriend next week,2021-01-08,0.76,31.0,https://www.reddit.com/r/wallstreetbets/comments/ktdrz6/how_to_fuck_your_wifes_boyfriend_next_week/,none
Hyundai screwed up,2021-01-08,0.66,15.0,https://www.reddit.com/r/wallstreetbets/comments/ktc9jo/hyundai_screwed_up/,none
GME,2021-01-08,0.93,290.0,https://www.reddit.com/r/wallstreetbets/comments/ktbu75/gme/,GME
Why Papa is really going to Mars + Tesla bullcase infinity,2021-01-08,0.75,16.0,https://www.reddit.com/r/wallstreetbets/comments/ktbpra/why_papa_is_really_going_to_mars_tesla_bullcase/,none
Nano X Fraud (NNOX),2021-01-08,0.73,12.0,https://www.reddit.com/r/wallstreetbets/comments/ktbamc/nano_x_fraud_nnox/,NNOX
Small short-term OIL play based on current geopolitics,2021-01-08,0.69,6.0,https://www.reddit.com/r/wallstreetbets/comments/ktb42g/small_shortterm_oil_play_based_on_current/,OIL
TLRY is a STEAL right now. We're going high as a kite bois 🚀🚀🚀🚀🚀,2021-01-08,0.83,33.0,https://www.reddit.com/r/wallstreetbets/comments/kt9bzi/tlry_is_a_steal_right_now_were_going_high_as_a/,TLRY
SLV - IMMEDIATE PLAY 🚀🚀🚀,2021-01-08,0.72,9.0,https://www.reddit.com/r/wallstreetbets/comments/kt94ho/slv_immediate_play/,PLAY
STZ: the next meme stock 🚀✨🌟🪐💵,2021-01-08,0.92,55.0,https://www.reddit.com/r/wallstreetbets/comments/kt8nah/stz_the_next_meme_stock/,STZ
$GLD hits new low today!,2021-01-08,0.88,28.0,https://www.reddit.com/r/wallstreetbets/comments/kt8hau/gld_hits_new_low_today/,GLD
Big Opportunity in BFT Covered Calls (Literally can't go tits up? Tell me how I just effed myself),2021-01-08,0.95,18.0,https://www.reddit.com/r/wallstreetbets/comments/kt847w/big_opportunity_in_bft_covered_calls_literally/,BFT
All You Retards Talking About NYSE Threshold Securities for $GME,2021-01-08,0.75,32.0,https://www.reddit.com/r/wallstreetbets/comments/kt6lyl/all_you_retards_talking_about_nyse_threshold/,GME
"Papa John's $PZZA - Make money, help franchise owners, and give Papa his company back",2021-01-08,0.38,0.0,https://www.reddit.com/r/wallstreetbets/comments/kt5vgi/papa_johns_pzza_make_money_help_franchise_owners/,PZZA
GOEV/canoo Force webinar notes 01/08/2021,2021-01-08,0.89,33.0,https://www.reddit.com/r/wallstreetbets/comments/kt5g9m/goevcanoo_force_webinar_notes_01082021/,GOEV
NVDA Catalyst - CES 2021 Jan 12th🚀,2021-01-08,0.87,20.0,https://www.reddit.com/r/wallstreetbets/comments/kt4v9m/nvda_catalyst_ces_2021_jan_12th/,NVDA
[IPOE] SOFI - Multi Bagging Millionaire Maker Stock. $200 Target Price by EOY 2022,2021-01-08,0.94,366.0,https://www.reddit.com/r/wallstreetbets/comments/kt41hy/ipoe_sofi_multi_bagging_millionaire_maker_stock/,IPOE
Some disturbing DD on MicroStrategy MSTR,2021-01-08,0.8,17.0,https://www.reddit.com/r/wallstreetbets/comments/kt33fl/some_disturbing_dd_on_microstrategy_mstr/,MSTR
Microsoft & Xbox forcing profits to Gamestop with their new Xbox Bundles 🚀🚀🚀,2021-01-08,0.96,380.0,https://www.reddit.com/r/wallstreetbets/comments/kt30cj/microsoft_xbox_forcing_profits_to_gamestop_with/,none
Alcoholic weapons & $SAM Spreads,2021-01-08,0.8,12.0,https://www.reddit.com/r/wallstreetbets/comments/ksz69g/alcoholic_weapons_sam_spreads/,SAM
$VALE - Iron ore price is going up from here,2021-01-08,0.97,72.0,https://www.reddit.com/r/wallstreetbets/comments/ksyzby/vale_iron_ore_price_is_going_up_from_here/,VALE
Phat DD on constipated flight centre,2021-01-08,0.67,4.0,https://www.reddit.com/r/wallstreetbets/comments/ksy21u/phat_dd_on_constipated_flight_centre/,none
Blackberry Rise From The Ashes,2021-01-08,0.87,54.0,https://www.reddit.com/r/wallstreetbets/comments/ksx2zd/blackberry_rise_from_the_ashes/,none
DD on Tesla ($TSLA). Bubble or Nah?,2021-01-08,0.89,104.0,https://www.reddit.com/r/wallstreetbets/comments/ksvrgz/dd_on_tesla_tsla_bubble_or_nah/,TSLA
"It's a Boomer play but it's absolutely guaranteed to print: $PRYMY (Prysmian Group), a play on upcoming infrastructure/grid upgrades",2021-01-08,0.89,99.0,https://www.reddit.com/r/wallstreetbets/comments/kst6uo/its_a_boomer_play_but_its_absolutely_guaranteed/,RY
Why Chamath Palihapitiya's points about Tesla are spot on.,2021-01-08,0.88,84.0,https://www.reddit.com/r/wallstreetbets/comments/kss7iq/why_chamath_palihapitiyas_points_about_tesla_are/,none
Why FUBO will be rocketing back up,2021-01-08,0.88,53.0,https://www.reddit.com/r/wallstreetbets/comments/kss1p0/why_fubo_will_be_rocketing_back_up/,FUBO
Listen up retards. INDIA STOCKS / INDA CALLS,2021-01-08,0.79,39.0,https://www.reddit.com/r/wallstreetbets/comments/ksqjru/listen_up_retards_india_stocks_inda_calls/,INDA
