DD,Date,Upvote_Ratio,score,url,Ticker
EV play about to Rocket,2021-01-05,0.58,6.0,https://www.reddit.com/r/wallstreetbets/comments/krb5hg/ev_play_about_to_rocket/,EV
"All the PLTR bear ""analysts"" are out of touch and have no idea what they're talking about",2021-01-05,0.91,431.0,https://www.reddit.com/r/wallstreetbets/comments/kr8tck/all_the_pltr_bear_analysts_are_out_of_touch_and/,PLTR
Why you should buy $LIT,2021-01-05,0.8,27.0,https://www.reddit.com/r/wallstreetbets/comments/kr8mnj/why_you_should_buy_lit/,LIT
$QS : check our my DD,2021-01-05,0.41,0.0,https://www.reddit.com/r/wallstreetbets/comments/kr81uw/qs_check_our_my_dd/,QS
Trump helps out $MT,2021-01-05,0.91,97.0,https://www.reddit.com/r/wallstreetbets/comments/kr802k/trump_helps_out_mt/,MT
Buy SLV calls before market close today,2021-01-05,0.75,22.0,https://www.reddit.com/r/wallstreetbets/comments/kr7frv/buy_slv_calls_before_market_close_today/,SLV
PGR - Still in. Update,2021-01-05,0.67,5.0,https://www.reddit.com/r/wallstreetbets/comments/kr79qy/pgr_still_in_update/,PGR
Sports and SPACs...there is a God,2021-01-05,0.65,5.0,https://www.reddit.com/r/wallstreetbets/comments/kr6wkd/sports_and_spacsthere_is_a_god/,PAC
Meet Perspecta ($PRSP): a boomer Palantir that might get a buyout,2021-01-05,0.91,217.0,https://www.reddit.com/r/wallstreetbets/comments/kr5ewm/meet_perspecta_prsp_a_boomer_palantir_that_might/,PRSP
🚀The Great Global Steel Shortage of 2021🚀,2021-01-05,0.95,164.0,https://www.reddit.com/r/wallstreetbets/comments/kr57gu/the_great_global_steel_shortage_of_2021/,none
NVAX Results P3 Results Coming Soon,2021-01-05,0.83,23.0,https://www.reddit.com/r/wallstreetbets/comments/kr3qkl/nvax_results_p3_results_coming_soon/,NVAX
$TLRY Update- 🚀🚀🚀🚀🚀,2021-01-05,0.92,108.0,https://www.reddit.com/r/wallstreetbets/comments/kr2bus/tlry_update/,TLRY
UnderArmour’s New Years Resolution is to get its ass off the couch and run again.,2021-01-05,0.85,34.0,https://www.reddit.com/r/wallstreetbets/comments/kr24e0/underarmours_new_years_resolution_is_to_get_its/,none
Buy EV or Green Energy stocks for the Georgia runoffs because Democrats will win,2021-01-05,0.85,94.0,https://www.reddit.com/r/wallstreetbets/comments/kr21vu/buy_ev_or_green_energy_stocks_for_the_georgia/,EV
BBBY upcoming ER is the next short squeeze play 🚀🇺🇸1776🇺🇸🚀,2021-01-05,0.94,150.0,https://www.reddit.com/r/wallstreetbets/comments/kr1o3x/bbby_upcoming_er_is_the_next_short_squeeze_play/,BBBY
$PINS - Unusual Option Flow Activity,2021-01-05,0.57,3.0,https://www.reddit.com/r/wallstreetbets/comments/kr147q/pins_unusual_option_flow_activity/,PINS
Why $WISH has the potential to go to the moon and beyond,2021-01-05,0.78,57.0,https://www.reddit.com/r/wallstreetbets/comments/kqv48d/why_wish_has_the_potential_to_go_to_the_moon_and/,WISH
$SAM - TEA THAT SLAPS! (Twisted Tea),2021-01-05,0.82,20.0,https://www.reddit.com/r/wallstreetbets/comments/kqul9y/sam_tea_that_slaps_twisted_tea/,SAM
SBUX LOST -3.63% TODAY EASY $$$ 🚀🚀,2021-01-05,0.66,12.0,https://www.reddit.com/r/wallstreetbets/comments/kqt2z1/sbux_lost_363_today_easy/,SBUX
Short $GOOG: DD inside,2021-01-05,0.48,0.0,https://www.reddit.com/r/wallstreetbets/comments/kqs5j0/short_goog_dd_inside/,GOOG
$MAC - undervalued and being accumulated,2021-01-05,0.95,111.0,https://www.reddit.com/r/wallstreetbets/comments/kqov54/mac_undervalued_and_being_accumulated/,MAC
$MP mega-DD -- MP Materials: The Money Printer --EV/Renewable Infrastructure and REEEEEEEEEE's,2021-01-05,0.94,135.0,https://www.reddit.com/r/wallstreetbets/comments/kqnld7/mp_megadd_mp_materials_the_money_printer/,EV
Romeo Power - January 4 2021 stock analysis,2021-01-05,0.92,44.0,https://www.reddit.com/r/wallstreetbets/comments/kqmzgu/romeo_power_january_4_2021_stock_analysis/,none
Shorting Intel (DD),2021-01-05,0.76,48.0,https://www.reddit.com/r/wallstreetbets/comments/kqm99s/shorting_intel_dd/,none
Commodity Club - Daily Iron Supplements,2021-01-05,0.91,36.0,https://www.reddit.com/r/wallstreetbets/comments/kqlpnp/commodity_club_daily_iron_supplements/,none
Why a Dem Sweep could Spell BIG BIG Trouble for Tech beyond Tax Increases,2021-01-05,0.48,0.0,https://www.reddit.com/r/wallstreetbets/comments/kqlnjn/why_a_dem_sweep_could_spell_big_big_trouble_for/,BIG
