DD,Date,Upvote_Ratio,score,url,Ticker
"$WISH, The Ultimate Stimulus Play",2021-01-09,0.56,4.0,https://www.reddit.com/r/wallstreetbets/comments/ku2nx4/wish_the_ultimate_stimulus_play/,WISH
The Pot/Weed/Cannabis DD that WSB has been missing. Real roadmap to 🚀🚀,2021-01-09,0.91,101.0,https://www.reddit.com/r/wallstreetbets/comments/ku2fx9/the_potweedcannabis_dd_that_wsb_has_been_missing/,SB
AAPL Earnings DD and iPhone 12 Sales Estimates,2021-01-09,0.96,96.0,https://www.reddit.com/r/wallstreetbets/comments/ku0e2j/aapl_earnings_dd_and_iphone_12_sales_estimates/,AAPL
Bloom Energy | Hydrogen Fuel Cell | Bigger Than TESLA in 5 years,2021-01-09,0.3,0.0,https://www.reddit.com/r/wallstreetbets/comments/ktvpg3/bloom_energy_hydrogen_fuel_cell_bigger_than_tesla/,ES
Salesforce,2021-01-09,0.82,43.0,https://www.reddit.com/r/wallstreetbets/comments/kttckq/salesforce/,none
NVAX Fireside Chat 13th annual Biotech Showcase: results coming end of Jan,2021-01-09,0.82,19.0,https://www.reddit.com/r/wallstreetbets/comments/kttavl/nvax_fireside_chat_13th_annual_biotech_showcase/,NVAX
Xiaomi $XIACF the next stock to blow up,2021-01-09,0.7,26.0,https://www.reddit.com/r/wallstreetbets/comments/ktsvlk/xiaomi_xiacf_the_next_stock_to_blow_up/,IAC
I'm calling bullshit. Why I'm shorting TWTR,2021-01-09,0.78,91.0,https://www.reddit.com/r/wallstreetbets/comments/ktsipd/im_calling_bullshit_why_im_shorting_twtr/,TWTR
NIO DAY HIGHLIGHTS,2021-01-09,0.95,627.0,https://www.reddit.com/r/wallstreetbets/comments/ktpzkt/nio_day_highlights/,GHL
"Next Stop to Tendie Town, Magna International (MGA). To the Moon and Beyond 🚀🚀🚀🚀🚀🚀🚀",2021-01-09,0.82,23.0,https://www.reddit.com/r/wallstreetbets/comments/ktlri9/next_stop_to_tendie_town_magna_international_mga/,MGA
$51000 in a weekly Lithium mining play $LAC,2021-01-09,0.9,74.0,https://www.reddit.com/r/wallstreetbets/comments/ktk2yu/51000_in_a_weekly_lithium_mining_play_lac/,LAC
An interesting fact about GME and the age of digital gaming (GME to the moon 🚀🚀🚀),2021-01-09,0.8,81.0,https://www.reddit.com/r/wallstreetbets/comments/ktj9hn/an_interesting_fact_about_gme_and_the_age_of/,GME
"This week in steel, the BIG finish today and the week to come! $MT $CMC $VALE $CLF $X $STLD $NUE",2021-01-09,0.97,538.0,https://www.reddit.com/r/wallstreetbets/comments/ktfori/this_week_in_steel_the_big_finish_today_and_the/,STLD
